<?xml version="1.0" encoding="UTF-8"?>
<svg xmlns="http://www.w3.org/2000/svg" xmlns:xlink="http://www.w3.org/1999/xlink" viewBox="0 0 48 48" version="1.1" width="480px" height="480px">
<g id="surface1">
<path style=" fill:#FFB300;" d="M 39.101563 15.199219 L 29.101563 15.101563 L 24.199219 6 L 19.199219 14.898438 L 9.199219 14.800781 L 14.101563 23.898438 L 9.101563 32.800781 L 19.101563 32.898438 L 24 42 L 29 33.101563 L 39 33.199219 L 34 24.101563 Z "/>
<path style=" fill:#E09E00;" d="M 24 32 C 19.5 32 16 28.5 16 24 C 16 19.5 19.5 16 24 16 C 28.5 16 32 19.5 32 24 C 32 28.5 28.5 32 24 32 Z "/>
<path style=" fill:#FFC107;" d="M 26 7 C 26 8.105469 25.105469 9 24 9 C 22.894531 9 22 8.105469 22 7 C 22 5.894531 22.894531 5 24 5 C 25.105469 5 26 5.894531 26 7 Z "/>
<path style=" fill:#FFC107;" d="M 41 15 C 41 16.105469 40.105469 17 39 17 C 37.894531 17 37 16.105469 37 15 C 37 13.894531 37.894531 13 39 13 C 40.105469 13 41 13.894531 41 15 Z "/>
<path style=" fill:#FFC107;" d="M 41 33 C 41 34.105469 40.105469 35 39 35 C 37.894531 35 37 34.105469 37 33 C 37 31.894531 37.894531 31 39 31 C 40.105469 31 41 31.894531 41 33 Z "/>
<path style=" fill:#FFC107;" d="M 26 41 C 26 42.105469 25.105469 43 24 43 C 22.894531 43 22 42.105469 22 41 C 22 39.894531 22.894531 39 24 39 C 25.105469 39 26 39.894531 26 41 Z "/>
<path style=" fill:#FFC107;" d="M 11 15 C 11 16.105469 10.105469 17 9 17 C 7.894531 17 7 16.105469 7 15 C 7 13.894531 7.894531 13 9 13 C 10.105469 13 11 13.894531 11 15 Z "/>
<path style=" fill:#FFC107;" d="M 11 33 C 11 34.105469 10.105469 35 9 35 C 7.894531 35 7 34.105469 7 33 C 7 31.894531 7.894531 31 9 31 C 10.105469 31 11 31.894531 11 33 Z "/>
<path style=" fill:#FFC107;" d="M 24 29 C 21.199219 29 19 26.800781 19 24 C 19 21.199219 21.199219 19 24 19 C 26.800781 19 29 21.199219 29 24 C 29 26.800781 26.800781 29 24 29 Z "/>
</g>
</svg>
